﻿Title,URLs
"About Hemp Oil Distro",https://hempoildistro.com/about-hemp-oil-distro/,
"About us",https://hempoildistro.com/about-us/,
"Amazing revolution slider",https://hempoildistro.com/amazing-revolution-slideshow/,
"Ameo Entune Transdermal CBD Patch",https://hempoildistro.com/product/ameo-entune-transdermal-cbd-patch/,
"Ameo Entune Transdermal CBD Patch Bulk",https://hempoildistro.com/product/ameo-entune-transdermal-cbd-patch-bulk/,
"Auto Draft",https://hempoildistro.com/?p=13203,
"Avid Hemp CBD Capsules",https://hempoildistro.com/product/avid-hemp-cbd-capsules/,
"Avid Hemp CBD Gummies",https://hempoildistro.com/product/avid-hemp-cbd-gummies/,
"Avid Hemp CBD Vape Liquid",https://hempoildistro.com/product/avid-hemp-cbd-vape-liquid/,
"Avid Hemp Vape Cartridge",https://hempoildistro.com/product/avid-hemp-vape-cartridge/,
Blog,https://hempoildistro.com/blog__trashed/,
"Blog Fullwidth",https://hempoildistro.com/blog-fullwidth__trashed/,
"Blog List",https://hempoildistro.com/blog-list__trashed/,
"Blog Masonry",https://hempoildistro.com/blog-masonry__trashed/,
"Blue Koi CBD E-Liquid",https://hempoildistro.com/product/blue-koi-cbd-e-liquid/,
"Building HTML5/CSS3 Webpages",https://hempoildistro.com/building-html5css3-webpages/,
"Cancel Payment",https://hempoildistro.com/arm_cancel_payment/,
"CBD Buyers Guide",https://hempoildistro.com/cbd-buyers-guide/,
"CBD Informational GUIDE",https://hempoildistro.com/cbd-information/,
"CBD Lion 300mg Lotion",https://hempoildistro.com/product/cbd-lion-300mg-lotion/,
"CBD Lion Disposable CBD Vape Pen 50mg",https://hempoildistro.com/product/cbd-lion-disposable-cbd-vape-pen-50mg/,
"CBD Lion Gummies 500mg Pack",https://hempoildistro.com/product/cbd-lion-gummies-500mg-pack/,
"CBD Lion Tincture",https://hempoildistro.com/product/cbd-lion-tincture/,
"CBD Shatter .5 Gram (1/2 Gram)",https://hempoildistro.com/product/cbd-shatter-5-gram-1-2-gram/,
"Change Password",https://hempoildistro.com/arm_change_password/,
Checkout,https://hempoildistro.com/checkout/,
"Chronic Candy CBD Lollipops",https://hempoildistro.com/product/chronic-candy-cbd-lollipops/,
"Coming soon",https://hempoildistro.com/coming-soon/,
"Contact Hemp Oil Distro",https://hempoildistro.com/contact-us-2/,
"Contact us",https://hempoildistro.com/contact-us__trashed/,
"Contact us 3",https://hempoildistro.com/contact-us__trashed/contact-us-3__trashed/,
"Contact us 4",https://hempoildistro.com/contact-us__trashed/contact-us-4__trashed/,
"Curabitur neque vitae justo",https://hempoildistro.com/portfolio/curabitur-neque-vitae-justo/,
"Disposable CBD Cartridges 150mg",https://hempoildistro.com/product/disposable-cbd-cartridges-150mg/,
"Donec ut lobortis metus",https://hempoildistro.com/portfolio/donec-ut-lobortis-metus/,
"Drag and drop page builder integration",https://hempoildistro.com/drag-and-drop-page-builder-integration/,
"Easy to custom content",https://hempoildistro.com/typi-non-habent-claritatem-insitam-est-usus-legentis-in/,
"Edit Profile",https://hempoildistro.com/arm_edit_profile/,
"Eget condimentum laoreet",https://hempoildistro.com/portfolio/eget-condimentum-odio-laoreet/,
FAQ,https://hempoildistro.com/faq__trashed/,
"Fashion Kid",https://hempoildistro.com/supermarket__trashed/fashion-kid__trashed/,
"Fizzies+ 30mg CBD Bath Bomb",https://hempoildistro.com/product/fizzies-30mg-cbd-bath-bomb/,
"Footer copyright game",https://hempoildistro.com/ts_footer_block/footer-copyright-game/,
"Footer electronic 2",https://hempoildistro.com/ts_footer_block/footer-electronic-2/,
"Footer electronic 2 copyright",https://hempoildistro.com/ts_footer_block/footer-electronic-2-copyright/,
"Footer fashion 2",https://hempoildistro.com/ts_footer_block/footer-home-fashion-2/,
"Footer fashion 3",https://hempoildistro.com/ts_footer_block/footer-fashion-3/,
"Footer fashion 4",https://hempoildistro.com/ts_footer_block/footer-home-fashion-4/,
"Footer fashion kid",https://hempoildistro.com/ts_footer_block/footer-fashion-kid/,
"Footer furniture",https://hempoildistro.com/ts_footer_block/footer-furniture/,
"Footer game",https://hempoildistro.com/ts_footer_block/footer-game/,
"Footer main",https://hempoildistro.com/ts_footer_block/footer-home-supermarker/,
"Footer main copyright",https://hempoildistro.com/ts_footer_block/footer-home-supermarket-copyright/,
"Footer organic",https://hempoildistro.com/ts_footer_block/footer-organic/,
"Footer pet",https://hempoildistro.com/ts_footer_block/footer-pet/,
"Footer spa",https://hempoildistro.com/ts_footer_block/footer-home-spa/,
"Footer sport",https://hempoildistro.com/ts_footer_block/footer-sport/,
"Footer supermarket",https://hempoildistro.com/ts_footer_block/footer-supermarket/,
"Footer yoga",https://hempoildistro.com/ts_footer_block/footer-home-yoga/,
"Forgot Password",https://hempoildistro.com/arm_forgot_password/,
"Free premium quantity support",https://hempoildistro.com/free-premium-quantity-support/,
"Funky Farms Cartridge Battery",https://hempoildistro.com/product/funky-farms-cartridge-battery/,
"Funky Farms CBD Gummies",https://hempoildistro.com/product/funky-farms-cbd-gummies/,
"Funky Farms CBD Tincture Daily Dose 33mg+ Packet",https://hempoildistro.com/product/funky-farms-cbd-tincture-daily-dose-33mg-packet/,
"Funky Farms CBD Vape 15ml 1000mg",https://hempoildistro.com/product/funky-farms-cbd-vape-15ml-1000mg/,
"Funky Farms CBD Vape 15ml 250mg",https://hempoildistro.com/product/funky-farms-cbd-vape-15ml-250mg/,
"Funky Farms CBD Vape 15ml 500mg",https://hempoildistro.com/product/funky-farms-cbd-vape-15ml-500mg/,
"Funky Farms Pre-Filled CBD Cartridge 350mg",https://hempoildistro.com/product/funky-farms-pre-filled-cbd-cartridge-350mg/,
"Funky Farms Tincture 30ml 1000mg",https://hempoildistro.com/product/funky-farms-tincture-30ml-1000mg/,
"Funky Farms Tincture 30ml 250mg",https://hempoildistro.com/product/funky-farms-tincture-30ml-250mg/,
"Funky Farms Tincture 30ml 500mg",https://hempoildistro.com/product/funky-farms-tincture-30ml-500mg/,
"Funky Farms Vape Pod",https://hempoildistro.com/product/funky-farms-vape-pod/,
"Gold Koi CBD E-Liquid",https://hempoildistro.com/product/gold-koi-cbd-e-liquid/,
Guest,https://hempoildistro.com/arm_guest/,
"H.E.M.P CBD Dog Treats",https://hempoildistro.com/product/h-e-m-p-cbd-dog-treats/,
"Hello world!",https://hempoildistro.com/hello-world/,
"Hemp Lucid 15mg Gel Caps (30 Count)",https://hempoildistro.com/product/hemp-lucid-15mg-gel-caps-30-count/,
"Hemp Lucid Dab Wax 200mg",https://hempoildistro.com/product/hemp-lucid-dab-wax-200mg/,
"Hemplucid Hemp Seed Oil Tincture 30ml",https://hempoildistro.com/product/hemplucid-hemp-seed-oil-tincture-30ml/,
Home,https://hempoildistro.com/,
Home,https://hempoildistro.com/supermarket__trashed/,
"Home Electronic",https://hempoildistro.com/supermarket__trashed/home-electronic__trashed/,
"Home Electronic 2",https://hempoildistro.com/supermarket__trashed/home-electronic-2__trashed/,
"Home Fashion 2",https://hempoildistro.com/supermarket__trashed/home-fashion-2__trashed/,
"Home Fashion 3",https://hempoildistro.com/supermarket__trashed/home-fashion-3__trashed/,
"Home Fashion 4",https://hempoildistro.com/supermarket__trashed/home-fashion-4__trashed/,
"Home Furniture",https://hempoildistro.com/supermarket__trashed/home-furniture__trashed/,
"Home Game",https://hempoildistro.com/supermarket__trashed/home-game__trashed/,
"Home Organic",https://hempoildistro.com/supermarket__trashed/home-organic__trashed/,
"Home Pet",https://hempoildistro.com/supermarket__trashed/home-pet__trashed/,
"Home Spa",https://hempoildistro.com/supermarket__trashed/home-spa__trashed/,
"Home Sport",https://hempoildistro.com/supermarket__trashed/home-sport__trashed/,
"Home Supermarket",https://hempoildistro.com/supermarket__trashed/home-supermarket__trashed/,
"Honey Hole Hemp Tincture 1000mg",https://hempoildistro.com/product/honey-hole-hemp-tincture-1000mg/,
"Honey Hole Hemp Tincture 500mg",https://hempoildistro.com/product/honey-hole-hemp-tincture-500mg/,
"Intro page",https://hempoildistro.com/intro-page__trashed/,
"Jade Koi CBD E-Liquid",https://hempoildistro.com/product/jade-koi-cbd-e-liquid/,
"Just CBD Dried Fruit 250mg",https://hempoildistro.com/product/just-cbd-dried-fruit-250mg/,
"Just CBD Gummies 250mg",https://hempoildistro.com/product/just-cbd-gummies-250mg/,
"Just CBD Gummies 500mg",https://hempoildistro.com/product/just-cbd-gummies-500mg/,
"Just CBD Licorice 2000mg Jar",https://hempoildistro.com/product/just-cbd-licorice-2000mg-jar/,
"Just CBD Pet Treats 100mg",https://hempoildistro.com/product/just-cbd-pet-treats-100mg/,
"Just CBD Prefilled Cartridges 200mg",https://hempoildistro.com/product/just-cbd-prefilled-cartridges-200mg/,
"Just CBD Protein Bars 25mg",https://hempoildistro.com/product/just-cbd-protein-bars-25mg/,
"Just CBD Roll On Freeze Cream 350mg",https://hempoildistro.com/product/just-cbd-roll-on-freeze-cream-350mg/,
"Just CBD Tincture 30ml",https://hempoildistro.com/product/just-cbd-tincture-30ml/,
"Kalki CBD Vape Liquid 30ml WS",https://hempoildistro.com/product/kalki-cbd-vape-liquid-30ml-ws/,
"Kalki Isoterp MCT Oil Tincture 30ml",https://hempoildistro.com/product/kalki-isoterp-mct-oil-tincture-30ml/,
"Koi CBD Lavender Lotion 200mg",https://hempoildistro.com/product/koi-cbd-lavender-lotion-200mg/,
"Koi Gummies 200mg",https://hempoildistro.com/product/koi-gummies-200mg/,
"Koi Gummies 60mg",https://hempoildistro.com/product/koi-gummies-60mg/,
"Koi Healing Balm 1.7 oz 500mg",https://hempoildistro.com/product/koi-healing-balm-1-7-oz-500mg/,
"Koi K9 Soft Chews 50mg",https://hempoildistro.com/product/koi-k9-soft-chews-50mg/,
"Koi Natural K9 500mg Spray",https://hempoildistro.com/product/koi-natural-k9-500mg-spray/,
"Koi Natural Lemon Lime Tincture 30ml",https://hempoildistro.com/product/koi-natural-lemon-lime-tincture-30ml/,
"Koi Natural Orange Tincture 30ml",https://hempoildistro.com/product/koi-natural-orange-tincture-30ml/,
"Koi Natural Peppermint Tincture 30ml",https://hempoildistro.com/product/koi-natural-peppermint-tincture-30ml/,
"Koi Naturals Natural Tincture 30ml",https://hempoildistro.com/product/koi-naturals-natural-tincture-30ml/,
"Koi Naturals Spearmint Tincture 30ml",https://hempoildistro.com/product/koi-naturals-spearmint-tincture-30ml/,
"Koi Naturals Strawberry Tincture 30ml",https://hempoildistro.com/product/koi-naturals-strawberry-tincture-30ml/,
"Koi Spectrum Cartridge 250mg",https://hempoildistro.com/product/koi-spectrum-cartridge-250mg/,
"Koi Spectrum Cartridge 500mg",https://hempoildistro.com/product/koi-spectrum-cartridge-500mg/,
"Koi Travel Healing Balm 1/2 oz Jar 150mg",https://hempoildistro.com/product/koi-travel-healing-balm-1-2-oz-jar-150mg/,
"Koi Zen Pod System Kit",https://hempoildistro.com/product/koi-zen-pod-system-kit/,
Login,https://hempoildistro.com/arm_login/,
Login,https://hempoildistro.com/rm_login__trashed/,
Logout,https://hempoildistro.com/logout__trashed/,
"Lorem ipsum dolor sit amet",https://hempoildistro.com/portfolio/lorem-ipsum-dolor-sit-amet/,
"My Account",https://hempoildistro.com/my-account/,
"Nam sollicitudin ac tempus",https://hempoildistro.com/portfolio/nam-sollicitudin-ac-tempus/,
"Nulla sed faucibus urna",https://hempoildistro.com/portfolio/nulla-sed-faucibus-urna/,
"Nulla sed faucibus urna",https://hempoildistro.com/portfolio/nulla-sed-faucibus-urna-2/,
"Partnership Application",https://hempoildistro.com/partnership-application/,
"Pellentesque habitant morbi",https://hempoildistro.com/portfolio/pellentesque-habitant-morbi/,
"Pellentesque habitant morbi",https://hempoildistro.com/portfolio/pellentesque-habitant-morbi-2/,
"Phasellus fringilla malesuada",https://hempoildistro.com/portfolio/phasellus-fringilla-malesuada/,
"Phasellus fringilla malesuada",https://hempoildistro.com/portfolio/phasellus-fringilla-malesuada-2/,
"Pink Koi CBD E-Liquid",https://hempoildistro.com/product/pink-koi-cbd-e-liquid/,
Portfolio,https://hempoildistro.com/portfolio__trashed/,
"Powerful theme options panel",https://hempoildistro.com/powerful-theme-options-panel/,
"Privacy Policy",https://hempoildistro.com/privacy-policy__trashed/,
"Privacy Policy",https://hempoildistro.com/privacy-policy-2/,
"Product By Brand AMEO Entune",https://hempoildistro.com/?post_type=product&p=12759,
"Product by Brand by H.E.M.P.",https://hempoildistro.com/?post_type=product&p=12771,
"Product by Brand Fully Activated",https://hempoildistro.com/?post_type=product&p=12769,
"Product By Brand Funky Farms",https://hempoildistro.com/?post_type=product&p=12558,
"Product by Brand Helping Friendly Salve",https://hempoildistro.com/?post_type=product&p=12772,
"Product By Brand Hemplucid",https://hempoildistro.com/?post_type=product&p=12765,
"Product by Brand Honey Hole",https://hempoildistro.com/?post_type=product&p=12767,
"Product By Brand Koi CBD",https://hempoildistro.com/?post_type=product&p=12761,
"Product by Brand Pinnacle Hemp",https://hempoildistro.com/?post_type=product&p=12763,
"Quisque dapibus am dui",https://hempoildistro.com/portfolio/quisque-dapibus-am-dui/,
"Quisque dapibus diam et",https://hempoildistro.com/portfolio/quisque-dapibus-diam-et/,
"Red Koi CBD E-Liquid",https://hempoildistro.com/product/red-koi-cbd-e-liquid/,
"Refund Policy",https://hempoildistro.com/refund-policy/,
Register,https://hempoildistro.com/arm_register__trashed/,
"Responsive and retina ready",https://hempoildistro.com/responsive-and-retina-ready/,
"Retailer Registration",https://hempoildistro.com/retailer-registration/,
"Roxy CBD Tincture For Pets",https://hempoildistro.com/product/roxy-cbd-tincture-for-pets/,
"Sample Page",https://hempoildistro.com/sample-page__trashed/,
"Sed malesuada dignissim",https://hempoildistro.com/portfolio/sed-malesuada-dignissim-2/,
"Sed malesuada dignissim",https://hempoildistro.com/portfolio/sed-malesuada-dignissim/,
"Shipping Terms",https://hempoildistro.com/shipping-terms/,
Shop,https://hempoildistro.com/shop/,
"Shopping cart",https://hempoildistro.com/cart/,
"Support mega menu style",https://hempoildistro.com/support-mega-menu-style/,
"Terms of Service",https://hempoildistro.com/terms-of-service/,
"Thank You",https://hempoildistro.com/arm_thank_you/,
"The Helping Friendly Broad Spectrum CBD Tincture 1000mg",https://hempoildistro.com/product/the-helping-friendly-broad-spectrum-cbd-tincture-1000mg/,
"The Helping Friendly Salve 1oz",https://hempoildistro.com/product/the-helping-friendly-salve-1oz/,
"The Helping Friendly Salve 4oz",https://hempoildistro.com/product/the-helping-friendly-salve-4oz/,
"The Helping Friendly Salve Combo Pack",https://hempoildistro.com/product/the-helping-friendly-salve-combo-pack/,
"The Helping Friendly Tincture 15ml 500mg",https://hempoildistro.com/product/the-helping-friendly-tincture-15ml-500mg/,
"The Helping Friendly Tincture 30ml 1000mg",https://hempoildistro.com/product/the-helping-friendly-tincture-30ml-1000mg/,
"The website Hight-load speed",https://hempoildistro.com/the-website-hight-load-speed/,
"Track order",https://hempoildistro.com/track-order/,
"Translation and WPML compatible",https://hempoildistro.com/translation-and-wpml-compatible/,
"Tropical Popsicle Koi CBD E-Liquid",https://hempoildistro.com/product/tropical-popsicle-koi-cbd-e-liquid/,
Typography,https://hempoildistro.com/typography__trashed/,
"User Account",https://hempoildistro.com/rm_submissions/,
"Ut maximus dui nulla nec",https://hempoildistro.com/portfolio/ut-maximus-dui-nulla-nec/,
"Vitae maximus magna erat",https://hempoildistro.com/portfolio/vitae-maximus-magna-erat/,
"Wholesale | Partnerships",https://hempoildistro.com/wholesale-partnerships/,
"Wholesale Brands",https://hempoildistro.com/wholesale-brands/,
"Wholesale Registration",https://hempoildistro.com/wholesale-registration/,
Wishlist,https://hempoildistro.com/wishlist/,
"WooCommerce compatible",https://hempoildistro.com/woocommerce-compatible/,
"Zen Replacement Pods (4 pack)",https://hempoildistro.com/product/zen-replacement-pods-4-pack/,
